# Blender v2.80 (sub 75) OBJ File: ''
# www.blender.org
mtllib mp.mtl
o Cube
v 1.000000 1.000000 -1.000000
v -0.557095 1.722600 0.729223
v -1.000000 1.000000 -1.000000
v 0.557095 1.722600 0.729223
v 0.557095 1.722600 1.000000
v -0.557095 1.722600 1.000000
v 0.557095 3.147194 1.000000
v -0.557095 3.147194 1.000000
v -1.000000 1.000000 -1.000000
v 1.000000 1.000000 -1.000000
v -0.557095 3.147194 0.729223
v 0.557095 3.147194 0.729223
v -0.557095 1.722600 1.000000
v 0.557095 3.147194 4.111704
v -0.398849 2.197460 4.249312
v 0.557095 3.147194 4.111704
v 0.557095 1.722600 4.111704
v -0.557095 1.722600 4.111704
v -0.557095 3.147194 4.111704
v 0.557095 1.722600 2.555852
v -0.557095 1.722600 2.555852
v -0.557095 3.147194 2.555852
v 0.557095 3.147194 2.555852
v 0.557095 3.147194 2.555852
v 0.557095 3.147194 4.111704
v -0.557095 3.147194 4.111704
v -0.246878 1.718148 4.111704
v 0.246878 1.718148 4.111704
v 0.557095 1.722600 2.555852
v -0.557095 1.722600 2.555852
v -0.557095 3.147194 2.555852
v -0.557095 3.147194 4.111704
v 0.557095 3.147194 4.111704
v -0.557095 1.722600 4.111704
v 0.557095 1.722600 4.111704
v 0.557095 3.147194 2.555852
v 0.557095 1.722600 2.555852
v -0.557095 1.722600 2.555852
v -0.557095 3.147194 2.555852
v 0.416053 0.911405 3.970662
v 0.416053 0.911405 2.696893
v -0.416053 0.911405 3.970662
v -0.416053 0.911405 2.696893
v 0.557095 1.722600 0.729223
v -0.557095 1.722600 0.729223
v 0.557095 0.911405 0.729223
v -0.557095 0.911405 0.729223
v 0.246878 1.292250 4.111704
v 0.557095 0.911405 2.555852
v -0.246878 1.292250 4.111704
v -0.557095 0.911405 2.555852
v 0.416053 -2.724191 3.970662
v 0.416053 -2.724191 2.696893
v -0.416053 -2.724191 3.970662
v -0.416053 -2.724191 2.696893
v 0.558938 1.000000 0.743921
v -0.623942 1.000000 0.727766
v 0.623942 1.000000 0.727766
v -0.558938 1.000000 -0.373955
v -0.558938 1.000000 0.743921
v 0.558938 1.000000 -0.373955
v -0.558938 3.147194 -0.373955
v -0.558938 3.147194 0.743921
v 0.558938 3.147194 -0.373955
v 0.558938 3.147194 0.743921
v 0.558938 2.073597 0.743921
v -0.558938 2.073597 0.743921
v -0.558938 2.845048 -0.373955
v 0.558938 2.845048 -0.373955
v -0.558938 1.011220 0.743921
v 0.558938 1.323352 -0.373955
v 0.558938 1.011220 0.743921
v -0.558938 1.323352 -0.373955
v -0.558938 1.323352 -3.645384
v -0.558938 2.845048 -3.645384
v 0.558938 2.845048 -3.645384
v 0.558938 1.323352 -3.645384
v 0.558938 2.845048 -2.009669
v -0.558938 2.845048 -2.009669
v -0.558938 1.323352 -2.009669
v 0.558938 1.323352 -2.009669
v -0.558938 0.342370 -3.645384
v 0.558938 0.342370 -3.645384
v -0.558938 0.342370 -2.009669
v 0.558938 0.342370 -2.009669
v 0.398849 2.935469 4.249312
v -0.398849 2.935469 4.249312
v 0.398849 2.197460 4.249312
v -0.557095 1.722600 4.111704
v -0.379892 2.230528 6.879588
v 0.379892 2.915269 6.879588
v -0.379892 2.915269 6.879588
v 0.379892 2.230528 6.879588
v 0.557095 1.722600 4.111704
v -0.557095 1.722600 4.111704
v 0.557095 0.911405 4.111704
v -0.557095 0.911405 4.111704
v -0.246878 1.718148 5.139475
v 0.246878 1.718148 5.139475
v 0.246878 1.292250 5.139475
v -0.246878 1.292250 5.139475
v -0.246878 1.292250 4.732594
v -0.246878 1.718148 4.732594
v 0.246878 1.718148 4.732594
v 0.246878 1.292250 4.732594
v -0.246878 2.182122 5.139475
v 0.246878 2.182122 5.139475
v -0.246878 2.182122 4.732594
v 0.246878 2.182122 4.732594
v 0.558938 1.011220 0.743921
v -0.376291 0.910264 -0.250893
v -0.376286 0.909034 0.621772
v 0.377204 0.909034 -0.250887
v 0.377199 0.919023 0.621766
v -0.558482 0.909034 -0.373499
v -0.558482 0.909034 0.744378
v 0.559395 0.909034 -0.373499
v 0.559395 0.920254 0.744378
v -0.369227 -0.305244 -0.532142
v -0.369221 -0.306475 0.340523
v 0.384269 -0.306475 -0.532136
v 0.384264 -0.296485 0.340517
vt 0.625000 0.305363
vt 0.625000 0.305363
vt 0.625000 0.305363
vt 0.625000 0.305363
vt 0.000000 0.000000
vt 0.000000 0.000000
vt 0.000000 0.000000
vt 0.000000 0.000000
vt 0.000000 0.000000
vt 0.000000 0.000000
vt 0.000000 0.000000
vt 0.000000 0.000000
vt 0.000000 0.000000
vt 0.000000 0.000000
vt 0.000000 0.000000
vt 0.000000 0.000000
vt 0.000000 0.000000
vt 0.000000 0.000000
vt 0.000000 0.000000
vt 0.000000 0.000000
vt 0.000000 0.000000
vt 0.000000 0.000000
vt 0.625000 0.305363
vt 0.625000 0.444637
vt 0.625000 0.444637
vt 0.625000 0.305363
vt 0.625000 0.305363
vt 0.625000 0.444637
vt 0.625000 0.444637
vt 0.625000 0.305363
vt 0.625000 0.305363
vt 0.625000 0.305363
vt 0.625000 0.444637
vt 0.625000 0.444637
vt 0.625000 0.444637
vt 0.625000 0.444637
vt 0.625000 0.305363
vt 0.625000 0.444637
vt 0.625000 0.444637
vt 0.625000 0.305363
vt 0.625000 0.444637
vt 0.625000 0.444637
vt 0.625000 0.430090
vt 0.625000 0.430090
vt 0.625000 0.430090
vt 0.625000 0.430090
vt 0.625000 0.305363
vt 0.625000 0.305363
vt 0.625000 0.444637
vt 0.625000 0.305363
vt 0.625000 0.305363
vt 0.625000 0.444637
vt 0.625000 0.427007
vt 0.625000 0.322993
vt 0.625000 0.322993
vt 0.625000 0.427007
vt 0.625000 0.305363
vt 0.625000 0.305363
vt 0.625000 0.305363
vt 0.625000 0.305363
vt 0.625000 0.444637
vt 0.625000 0.444637
vt 0.625000 0.444637
vt 0.625000 0.444637
vt 0.625000 0.322993
vt 0.625000 0.427007
vt 0.625000 0.322993
vt 0.625000 0.427007
vt 0.625000 0.444637
vt 0.000000 0.000000
vt 0.000000 0.000000
vt 0.000000 0.000000
vt 0.000000 0.000000
vt 0.000000 0.000000
vt 0.000000 0.000000
vt 0.000000 0.000000
vt 0.000000 0.000000
vt 0.000000 0.000000
vt 0.000000 0.000000
vt 0.000000 0.000000
vt 0.000000 0.000000
vt 0.000000 0.000000
vt 0.000000 0.000000
vt 0.000000 0.000000
vt 0.000000 0.000000
vt 0.000000 0.000000
vt 0.000000 0.000000
vt 0.000000 0.000000
vt 0.000000 0.000000
vt 0.000000 0.000000
vt 0.000000 0.000000
vt 0.000000 0.000000
vt 0.000000 0.000000
vt 0.000000 0.000000
vt 0.000000 0.000000
vt 0.000000 0.000000
vt 0.000000 0.000000
vt 0.000000 0.000000
vt 0.000000 0.000000
vt 0.000000 0.000000
vt 0.000000 0.000000
vt 0.625000 0.430090
vt 0.625000 0.319910
vt 0.625000 0.319910
vt 0.625000 0.430090
vt 0.625000 0.319910
vt 0.625000 0.319910
vt 0.625000 0.319910
vt 0.625000 0.430090
vt 0.625000 0.319910
vt 0.625000 0.319910
vt 0.625000 0.430090
vt 0.625000 0.319910
vt 0.000000 0.000000
vt 0.000000 0.000000
vt 0.000000 0.000000
vt 0.000000 0.000000
vt 0.000000 0.000000
vt 0.000000 0.000000
vt 0.000000 0.000000
vt 0.000000 0.000000
vt 0.000000 0.000000
vt 0.000000 0.000000
vt 0.000000 0.000000
vt 0.000000 0.000000
vt 0.000000 0.000000
vn 1.0000 0.0000 0.0000
vn -1.0000 -0.0000 0.0000
vn 0.0000 0.0000 -1.0000
vn 0.0000 0.0000 1.0000
vn 0.0000 -0.9999 0.0126
vn 0.0000 -1.0000 0.0000
vn 0.0000 1.0000 0.0000
vn 0.0000 0.5450 0.8385
vn 0.6562 0.0000 0.7546
vn -0.6562 0.0000 0.7546
vn 0.0000 -0.2783 0.9605
vn 0.0000 1.0000 0.0077
vn 1.0000 0.0000 0.0072
vn -1.0000 0.0000 0.0072
vn 1.0000 0.0050 -0.0001
vn 0.0030 -0.2254 0.9743
vn -1.0000 -0.0050 0.0000
vn -0.0001 0.0050 1.0000
vn 0.0000 -0.0050 -1.0000
vn 0.0034 -1.0000 -0.0006
vn -0.0007 -1.0000 0.0050
vn 0.0034 -0.9999 0.0107
vn 0.0113 -0.9999 0.0050
vn 0.0058 -1.0000 0.0050
vn 0.0004 0.2254 -0.9743
vn 1.0000 0.0058 -0.0001
vn -1.0000 -0.0058 -0.0000
usemtl Material
s off
f 7/1/1 5/2/1 4/3/1 12/4/1
f 13/5/2 8/6/2 11/7/2 2/8/2
f 12/9/3 4/10/3 2/8/3 11/7/3
f 67/11/4 66/12/4 65/13/4 63/14/4
f 15/15/5 88/16/5 93/17/5 90/18/5
f 18/19/4 17/20/4 89/21/4 19/22/4
f 23/23/4 22/24/4 39/25/4 36/26/4
f 17/27/4 18/28/4 34/29/4 35/30/4
f 20/31/4 23/23/4 36/26/4 37/32/4
f 22/24/4 21/33/4 38/34/4 39/25/4
f 5/2/1 7/1/1 23/23/1 20/31/1
f 6/35/6 5/2/6 20/31/6 21/33/6
f 8/36/2 6/35/2 21/33/2 22/24/2
f 7/1/7 8/36/7 22/24/7 23/23/7
f 24/37/7 31/38/7 26/39/7 33/40/7
f 31/38/2 30/41/2 95/42/2 26/39/2
f 103/43/2 102/44/2 101/45/2 98/46/2
f 29/47/1 24/37/1 33/40/1 94/48/1
f 19/49/4 16/50/4 25/51/4 32/52/4
f 21/33/4 20/31/4 37/32/4 38/34/4
f 16/50/4 17/27/4 35/30/4 25/51/4
f 18/28/4 19/49/4 32/52/4 34/29/4
f 33/40/4 26/39/4 32/52/4 25/51/4
f 26/39/4 95/42/4 34/29/4 32/52/4
f 95/42/4 94/48/4 35/30/4 34/29/4
f 94/48/4 33/40/4 25/51/4 35/30/4
f 24/37/4 29/47/4 37/32/4 36/26/4
f 29/47/4 30/41/4 38/34/4 37/32/4
f 30/41/4 31/38/4 39/25/4 38/34/4
f 31/38/4 24/37/4 36/26/4 39/25/4
f 43/53/3 41/54/3 53/55/3 55/56/3
f 29/47/1 94/48/1 96/57/1 49/58/1
f 29/47/1 49/58/1 46/59/1 44/60/1
f 95/42/2 30/41/2 51/61/2 97/62/2
f 45/63/3 44/60/3 46/59/3 47/64/3
f 30/41/7 29/47/7 44/60/7 45/63/7
f 51/61/2 30/41/2 45/63/2 47/64/2
f 49/58/6 51/61/6 47/64/6 46/59/6
f 40/65/6 41/54/6 49/58/6 96/57/6
f 43/53/6 42/66/6 97/62/6 51/61/6
f 42/66/6 40/65/6 96/57/6 97/62/6
f 41/54/6 43/53/6 51/61/6 49/58/6
f 55/56/6 53/55/6 52/67/6 54/68/6
f 42/66/2 43/53/2 55/56/2 54/68/2
f 40/65/4 42/66/4 54/68/4 52/67/4
f 41/54/1 40/65/1 52/67/1 53/55/1
f 8/36/7 7/1/7 12/4/7 11/69/7
f 5/70/6 13/5/6 2/8/6 4/10/6
f 56/71/6 60/72/6 57/73/6 58/74/6
f 65/13/7 64/75/7 62/76/7 63/14/7
f 69/77/3 68/78/3 62/76/3 64/75/3
f 66/12/1 69/77/1 64/75/1 65/13/1
f 68/78/2 67/11/2 63/14/2 62/76/2
f 73/79/2 70/80/2 67/11/2 68/78/2
f 72/81/1 71/82/1 69/77/1 66/12/1
f 79/83/7 78/84/7 76/85/7 75/86/7
f 70/80/4 72/81/4 66/12/4 67/11/4
f 60/72/4 56/71/4 72/81/4 70/80/4
f 61/87/3 59/88/3 73/79/3 71/82/3
f 56/71/1 61/87/1 71/82/1 72/81/1
f 59/88/2 60/72/2 70/80/2 73/79/2
f 77/89/3 74/90/3 75/86/3 76/85/3
f 80/91/2 79/83/2 75/86/2 74/90/2
f 74/90/3 77/89/3 83/92/3 82/93/3
f 78/84/1 81/94/1 77/89/1 76/85/1
f 69/77/1 71/82/1 81/94/1 78/84/1
f 71/82/6 73/79/6 80/91/6 81/94/6
f 73/79/2 68/78/2 79/83/2 80/91/2
f 68/78/7 69/77/7 78/84/7 79/83/7
f 85/95/6 84/96/6 82/93/6 83/92/6
f 80/91/2 74/90/2 82/93/2 84/96/2
f 81/94/4 80/91/4 84/96/4 85/95/4
f 77/89/1 81/94/1 85/95/1 83/92/1
f 87/97/8 86/98/8 14/99/8 19/22/8
f 86/98/9 88/16/9 17/20/9 14/99/9
f 15/15/10 87/97/10 19/22/10 89/21/10
f 88/16/11 15/15/11 89/21/11 17/20/11
f 90/18/4 93/17/4 91/100/4 92/101/4
f 86/98/12 87/97/12 92/101/12 91/100/12
f 88/16/13 86/98/13 91/100/13 93/17/13
f 87/97/14 15/15/14 90/18/14 92/101/14
f 27/102/4 28/103/4 94/48/4 95/42/4
f 48/104/4 50/105/4 97/62/4 96/57/4
f 50/105/4 27/102/4 95/42/4 97/62/4
f 28/103/4 48/104/4 96/57/4 94/48/4
f 99/106/4 98/46/4 101/45/4 100/107/4
f 104/108/3 103/43/3 108/109/3 109/110/3
f 105/111/1 104/108/1 99/106/1 100/107/1
f 102/44/6 105/111/6 100/107/6 101/45/6
f 50/105/6 48/104/6 105/111/6 102/44/6
f 48/104/1 28/103/1 104/108/1 105/111/1
f 28/103/7 27/102/7 103/43/7 104/108/7
f 27/102/2 50/105/2 102/44/2 103/43/2
f 109/110/7 108/109/7 106/112/7 107/113/7
f 99/106/1 104/108/1 109/110/1 107/113/1
f 98/46/4 99/106/4 107/113/4 106/112/4
f 103/43/2 98/46/2 106/112/2 108/109/2
f 61/87/15 110/114/15 118/115/15 117/116/15
f 114/117/16 112/118/16 120/119/16 122/120/16
f 60/72/17 59/88/17 115/121/17 116/122/17
f 110/114/18 60/72/18 116/122/18 118/115/18
f 59/88/19 61/87/19 117/116/19 115/121/19
f 111/123/20 112/118/20 116/122/20 115/121/20
f 113/124/21 111/123/21 115/121/21 117/116/21
f 114/117/22 113/124/22 117/116/22 118/115/22
f 112/118/23 114/117/23 118/115/23 116/122/23
f 119/125/24 121/126/24 122/120/24 120/119/24
f 111/123/25 113/124/25 121/126/25 119/125/25
f 113/124/26 114/117/26 122/120/26 121/126/26
f 112/118/27 111/123/27 119/125/27 120/119/27
l 3 9
l 10 1
l 9 10
